{
    "com.transistorsoft.cordova.background-geolocation": {
        "source": {
            "type": "git",
            "url": "https://github.com/transistorsoft/cordova-background-geolocation-lt.git",
            "subdir": "."
        },
        "is_top_level": true,
        "variables": {}
    },
    "cordova-plugin-battery-status": {
        "source": {
            "type": "registry",
            "id": "cordova-plugin-battery-status@>1.0.0"
        },
        "is_top_level": true,
        "variables": {}
    },
    "cordova-plugin-camera": {
        "source": {
            "type": "registry",
            "id": "cordova-plugin-camera@>1.0.0"
        },
        "is_top_level": true,
        "variables": {}
    },
    "cordova-plugin-media-capture": {
        "source": {
            "type": "registry",
            "id": "cordova-plugin-media-capture@>1.0.0"
        },
        "is_top_level": true,
        "variables": {}
    },
    "cordova-plugin-file": {
        "source": {
            "type": "registry",
            "id": "cordova-plugin-file"
        },
        "is_top_level": false,
        "variables": {}
    },
    "cordova-plugin-console": {
        "source": {
            "type": "registry",
            "id": "cordova-plugin-console@>1.0.0"
        },
        "is_top_level": true,
        "variables": {}
    },
    "cordova-plugin-contacts": {
        "source": {
            "type": "registry",
            "id": "cordova-plugin-contacts@>1.0.0"
        },
        "is_top_level": true,
        "variables": {}
    },
    "cordova-plugin-device": {
        "source": {
            "type": "registry",
            "id": "cordova-plugin-device@>1.0.0"
        },
        "is_top_level": true,
        "variables": {}
    },
    "cordova-plugin-device-motion": {
        "source": {
            "type": "registry",
            "id": "cordova-plugin-device-motion@>1.0.0"
        },
        "is_top_level": true,
        "variables": {}
    },
    "cordova-plugin-device-orientation": {
        "source": {
            "type": "registry",
            "id": "cordova-plugin-device-orientation@>1.0.0"
        },
        "is_top_level": true,
        "variables": {}
    },
    "cordova-plugin-dialogs": {
        "source": {
            "type": "registry",
            "id": "cordova-plugin-dialogs@>1.0.0"
        },
        "is_top_level": true,
        "variables": {}
    },
    "cordova-plugin-file-transfer": {
        "source": {
            "type": "registry",
            "id": "cordova-plugin-file-transfer@>1.0.0"
        },
        "is_top_level": true,
        "variables": {}
    },
    "cordova-plugin-geolocation": {
        "source": {
            "type": "registry",
            "id": "cordova-plugin-geolocation@>1.0.0"
        },
        "is_top_level": true,
        "variables": {}
    },
    "cordova-plugin-globalization": {
        "source": {
            "type": "registry",
            "id": "cordova-plugin-globalization@>1.0.0"
        },
        "is_top_level": true,
        "variables": {}
    },
    "cordova-plugin-inappbrowser": {
        "source": {
            "type": "registry",
            "id": "cordova-plugin-inappbrowser@>1.0.0"
        },
        "is_top_level": true,
        "variables": {}
    },
    "cordova-plugin-media": {
        "source": {
            "type": "registry",
            "id": "cordova-plugin-media@>1.0.0"
        },
        "is_top_level": true,
        "variables": {}
    },
    "cordova-plugin-network-information": {
        "source": {
            "type": "registry",
            "id": "cordova-plugin-network-information@>1.0.0"
        },
        "is_top_level": true,
        "variables": {}
    },
    "cordova-plugin-splashscreen": {
        "source": {
            "type": "registry",
            "id": "cordova-plugin-splashscreen@>1.0.0"
        },
        "is_top_level": true,
        "variables": {}
    },
    "cordova-plugin-statusbar": {
        "source": {
            "type": "registry",
            "id": "cordova-plugin-statusbar@>1.0.0"
        },
        "is_top_level": true,
        "variables": {}
    },
    "cordova-plugin-vibration": {
        "source": {
            "type": "registry",
            "id": "cordova-plugin-vibration@>1.0.0"
        },
        "is_top_level": true,
        "variables": {}
    },
    "cordova-plugin-whitelist": {
        "source": {
            "type": "registry",
            "id": "cordova-plugin-whitelist@>1.0.0"
        },
        "is_top_level": true,
        "variables": {}
    }
}